{
  "token": "YOUR_TOKEN",
  "tokenAdmin": "YOUR_TOKEN_2",
  "apiId": "YOUR_API_ID_UNUSED_FOR_NOW",
  "apiHash": "YOUR_API_HASH_UNUSED_FOR_NOW",
  "workerBotName": "@gigachat_ton_2022_bot",
  "adminBotName": "@gigachat_ton_admin_bot",
  "apiKey": "YOUR_API_KEY",

  "privateKey": "we need this to demonstrate the transaction itself | this is a mock | a private key of a payer's wallet"
}
